{
  "gateways": [
    {
      "capabilities": {
        "adblock": false,
        "filter_dns": false,
        "limited": false,
        "transport":[
          {
            "type":"openvpn",
            "protocols":[
              "tcp"
            ],
            "ports":[
              "1194"
            ]
          }
        ],
        "user_ips": false
      },
      "host": "crane.riseup.net",
      "ip_address": "37.218.244.249",
      "location": "miami"
    },
    {
      "capabilities": {
        "adblock": false,
        "filter_dns": false,
        "limited": false,
        "transport":[
          {
            "type":"openvpn",
            "protocols":[
              "tcp"
            ],
            "ports":[
              "443"
            ]
          }
        ],
        "user_ips": false
      },
      "host": "fournier.riseup.net",
      "ip_address": "212.129.4.124",
      "location": "paris"
    },
    {
      "capabilities": {
        "adblock": false,
        "filter_dns": false,
        "limited": false,
        "transport":[
          {
            "type":"openvpn",
            "protocols":[
              "tcp"
            ],
            "ports":[
              "443"
            ]
          }
        ],
        "user_ips": false
      },
      "host": "gaei.riseup.net",
      "ip_address": "199.58.83.12",
      "location": "montreal"
    },
    {
      "capabilities": {
        "adblock": false,
        "filter_dns": false,
        "limited": false,
        "transport":[
          {
            "type":"obfs4",
            "protocols":[
              "tcp"
            ],
            "ports":[
              "23042"
            ],
            "options": {
              "cert": "/ntRNI6JYP7R6kGKldibKWj0aCsv96Hdu/jSGncPy+rcverCLI7Emod+vRkz61hM7F/udA",
              "iatMode": "0"
            }
          },              
          {
            "type":"openvpn",
            "protocols":[
              "tcp"
            ],
            "ports":[
              "443"
            ]
          }
        ],
        "user_ips": false
      },
      "host": "garza.riseup.net",
      "ip_address": "198.252.153.28",
      "location": "seattle"
    },
    {
      "capabilities": {
        "adblock": false,
        "filter_dns": false,
        "limited": false,
        "transport":[
          {
            "type":"openvpn",
            "protocols":[
              "tcp"
            ],
            "ports":[
              "443"
            ]
          }
        ],
        "user_ips": false
      },          
      "host": "hoatzin.riseup.net",
      "ip_address": "212.83.143.67",
      "location": "paris"
    },
    {
      "capabilities": {
        "adblock": false,
        "filter_dns": false,
        "limited": false,
        "transport":[
          {
            "type":"openvpn",
            "protocols":[
              "tcp"
            ],
            "ports":[
              "443"
            ]
          }
        ],
        "user_ips": false
      },          
      "host": "hirondelle.riseup.net",
      "ip_address": "212.83.144.12",
      "location": "paris"
    },
    {
      "capabilities": {
        "adblock": false,
        "filter_dns": false,
        "limited": false,
        "transport":[
          {
            "type":"openvpn",
            "protocols":[
              "tcp"
            ],
            "ports":[
              "443"
            ]
          }
        ],
        "user_ips": false
      },          
      "host": "hornero.riseup.net",
      "ip_address": "212.129.4.141",
      "location": "amsterdam"
    },      
    {
      "capabilities": {
        "adblock": false,
        "filter_dns": false,
        "limited": false,
        "transport":[
          {
            "type":"openvpn",
            "protocols":[
              "tcp"
            ],
            "ports":[
              "443"
            ]
          }
        ],
        "user_ips": false
      },          
      "host": "pie.riseup.net",
      "ip_address": "212.83.146.228",
      "location": "paris"
    },
    {
      "capabilities": {
        "adblock": false,
        "filter_dns": false,
        "limited": false,
        "transport":[
          {
            "type":"openvpn",
            "protocols":[
              "tcp"
            ],
            "ports":[
              "443"
            ]
          }
        ],
        "user_ips": false
      },
      "host": "mockingjay.riseup.net",
      "ip_address": "212.129.37.129",
      "location": "paris"
    },      
    {
      "capabilities": {
        "adblock": false,
        "filter_dns": false,
        "limited": false,
        "transport":[
          {
            "type":"openvpn",
            "protocols":[
              "tcp"
            ],
            "ports":[
              "443"
            ]
          }
        ],
        "user_ips": false
      },
      "host": "mouette.riseup.net",
      "ip_address": "163.172.126.44",
      "location": "paris"
    },
    {
      "capabilities": {
        "adblock": false,
        "filter_dns": false,
        "limited": false,
        "transport":[
          {
            "type":"openvpn",
            "protocols":[
              "tcp"
            ],
            "ports":[
              "443"
            ]
          }
        ],
        "user_ips": false
      },          
      "host": "redshank.riseup.net",
      "ip_address": "212.83.165.160",
      "location": "amsterdam"
    },
    {
      "capabilities": {
        "adblock": false,
        "filter_dns": false,
        "limited": false,
        "transport":[
          {
            "type":"openvpn",
            "protocols":[
              "tcp"
            ],
            "ports":[
              "443"
            ]
          }
        ],
        "user_ips": false
      },
      "host": "shag.riseup.net",
      "ip_address": "212.83.182.127",
      "location": "amsterdam"
    },
    {
      "capabilities": {
        "adblock": false,
        "filter_dns": false,
        "limited": false,
        "transport":[
          {
            "type":"obfs4",
            "protocols":[
              "tcp"
            ],
            "ports":[
              "23042"
            ],
            "options": {
              "cert": "48F/JNm/LKYt7zkDmPHXcw5f3Jqgwg/3OBRrqW14Yj87ATZ4KyAZRV7np4RhCXGSJHgoCQ",
              "iatMode": "0"
            }
          },      
          {
            "type":"openvpn",
            "protocols":[
              "tcp"
            ],
            "ports":[
              "443"
            ]
          }
        ],
        "user_ips": false
      },
      "host": "yal.riseup.net",
      "ip_address": "199.58.83.10",
      "location": "montreal"
    },
    {
      "capabilities": {
        "adblock": false,
        "filter_dns": false,
        "limited": false,
        "transport":[
          {
            "type":"openvpn",
            "protocols":[
              "tcp"
            ],
            "ports":[
              "443"
            ]
          }
        ],
        "user_ips": false
      },
      "host": "zarapito.riseup.net",
      "ip_address": "212.129.62.247",
      "location": "paris"
    },
    {
      "capabilities": {
        "adblock": false,
        "filter_dns": false,
        "limited": false,
        "transport":[
          {
            "type":"openvpn",
            "protocols":[
              "tcp"
            ],
            "ports":[
              "443"
            ]
          }
        ],
        "user_ips": false
      },
      "host": "starling.riseup.net",
      "ip_address": "185.220.103.12",
      "location": "newyork"
    },
    {
      "capabilities": {
        "adblock": false,
        "filter_dns": false,
        "limited": false,
        "transport":[
          {
            "type":"openvpn",
            "protocols":[
              "tcp"
            ],
            "ports":[
              "443"
            ]
          }
        ],
        "user_ips": false
      },
      "host": "limpkin.riseup.net",
      "ip_address": "37.218.244.251",
      "location": "miami"
    }
  ],
  "locations": {
    "amsterdam": {
      "country_code": "NL",
      "hemisphere": "N",
      "name": "Amsterdam",
      "timezone": "+2"
    },
    "miami": {
      "country_code": "US",
      "hemisphere": "S",
      "name": "Miami",
      "timezone": "-5"
    },
    "montreal": {
      "country_code": "CA",
      "hemisphere": "N",
      "name": "Montreal",
      "timezone": "-5"
    },
    "newyork": {
      "country_code": "US",
      "hemisphere": "N",
      "name": "NewYork",
      "timezone": "-7"
    },
    "paris": {
      "country_code": "FR",
      "hemisphere": "N",
      "name": "Paris",
      "timezone": "+2"
    },
    "seattle": {
      "country_code": "US",
      "hemisphere": "N",
      "name": "Seattle",
      "timezone": "-7"
    }
  },
  "openvpn_configuration": {
    "auth": "SHA1",
    "cipher": "AES-128-CBC",
    "keepalive": "10 30",
    "tls-cipher": "DHE-RSA-AES128-SHA",
    "tun-ipv6": true
  },
  "serial": 3,
  "version": 3
}
